; Engine configuration file.
; It's best edited using the editor UI and not directly,
; since the parameters that go here are not all obvious.
;
; Format:
;   [section] ; section goes between []
;   param=value ; assign values to parameters

config_version=4

_global_script_classes=[ {
"base": "Node2D",
"class": "Model",
"language": "GDScript",
"path": "res://src/Screens/Board.gd"
} ]
_global_script_class_icons={
"Model": ""
}

[application]

config/name="MInimaxAlphaBeta"
run/main_scene="res://src/Screens/Main.tscn"
config/icon="res://icon.png"

[autoload]

Agent="*res://src/MinimaxAlphaBeta.tscn"

[rendering]

quality/driver/driver_name="GLES2"
vram_compression/import_etc=true
vram_compression/import_etc2=false
environment/default_environment="res://default_env.tres"
